<?xml version="1.0" encoding="UTF-8" standalone="no"?>
<!DOCTYPE svg PUBLIC "-//W3C//DTD SVG 1.1//EN" "http://www.w3.org/Graphics/SVG/1.1/DTD/svg11.dtd">
<svg version="1.1" id="Layer_1" xmlns="http://www.w3.org/2000/svg" xmlns:xlink="http://www.w3.org/1999/xlink" x="0px" y="0px" width="24px" height="24px" viewBox="0 0 24 24" enable-background="new 0 0 24 24" xml:space="preserve">  <image id="image0" width="24" height="24" x="0" y="0"
    href="data:image/png;base64,iVBORw0KGgoAAAANSUhEUgAAABgAAAAYCAQAAABKfvVzAAAABGdBTUEAALGPC/xhBQAAACBjSFJN
AAB6JgAAgIQAAPoAAACA6AAAdTAAAOpgAAA6mAAAF3CculE8AAAAAmJLR0QA/4ePzL8AAAAHdElN
RQflCBgPHDGTdQ56AAAAR0lEQVQ4y+2UsQ0AIAzDDExInMVRfYEr4ROYQGJr9jarnWyFhjHZjkyM
BuaCbwxn+1tJbKTLGh5CCCH8wpL4Vah0QRiob+YAKJBbqAJxc/0AAAAldEVYdGRhdGU6Y3JlYXRl
ADIwMjEtMDgtMjRUMTU6Mjg6NDkrMDA6MDDIUSOOAAAAJXRFWHRkYXRlOm1vZGlmeQAyMDIxLTA4
LTI0VDE1OjI4OjQ5KzAwOjAwuQybMgAAAABJRU5ErkJggg==" />
</svg>
