<?xml version="1.0" standalone="no"?>
<!DOCTYPE svg PUBLIC "-//W3C//DTD SVG 1.0//EN" "http://www.w3.org/TR/2001/REC-SVG-20010904/DTD/svg10.dtd">
<svg xmlns="http://www.w3.org/2000/svg" xmlns:xlink="http://www.w3.org/1999/xlink" id="body_1" width="43" height="31">

<g transform="matrix(1.1025641 0 0 1.1071428 0 0)">
	<g transform="matrix(0.6184602 0 0 0.58818585 4.779411 -0)">
	</g>
    <path transform="matrix(0.6184602 0 0 0.58818585 4.779411 -0)"  d="M43.331 21.237L7.233 0.397C 6.316 -0.13199997 5.189 -0.13199997 4.273 0.397C 3.3569999 0.925 2.7929997 1.902 2.7929997 2.96L2.7929997 2.96L2.7929997 44.643997C 2.7929997 45.701996 3.3569999 46.678997 4.273 47.206997C 4.731 47.475 5.2419996 47.603996 5.753 47.603996C 6.264 47.603996 6.7749996 47.470997 7.233 47.206997L7.233 47.206997L43.331 26.366997C 44.249 25.837997 44.81 24.860996 44.81 23.802998C 44.81 22.744999 44.247 21.767 43.331 21.237z" stroke="none" fill="#000000" fill-rule="nonzero" />
</g>
</svg>